<?xml version="1.0" encoding="UTF-8"?>
<svg width="116px" height="143px" viewBox="0 0 116 143" version="1.1" xmlns="http://www.w3.org/2000/svg" xmlns:xlink="http://www.w3.org/1999/xlink">
    <!-- Generator: Sketch 44.1 (41455) - http://www.bohemiancoding.com/sketch -->
    <title>logo-vertical</title>
    <desc>Created with Sketch.</desc>
    <defs></defs>
    <g id="Page-1" stroke="none" stroke-width="1" fill="none" fill-rule="evenodd">
        <g id="home" transform="translate(-139.000000, -78.000000)" fill="#FF7600">
            <g id="content" transform="translate(139.000000, 78.000000)">
                <path d="M63.6798714,142.817425 L66.0753491,142.817425 L66.0753491,126.483312 L63.6798714,126.483312 L63.6798714,142.817425 Z M22.2357907,142.963397 C23.9755643,143.091516 25.6732381,142.91824 27.162518,141.879637 C28.8559819,140.698212 29.3001346,139.007462 28.9643888,137.091979 C28.6549554,135.323518 27.5308911,134.228206 25.7848026,133.828097 C24.7502004,133.589712 23.6892858,133.473145 22.6494211,133.255763 C21.6706011,133.049932 20.6717837,132.807346 20.3918201,131.633273 C19.9950297,129.978228 21.0559442,128.575221 22.7673005,128.469155 C24.3007852,128.373591 25.7542802,128.579422 26.7520451,129.51721 C27.358282,129.012086 27.8887393,128.56997 28.4160391,128.129955 C26.8078273,126.503265 24.2713153,125.885774 21.6232388,126.449707 C19.3066982,126.94433 17.8732005,128.740095 17.8910929,131.122897 C17.9079328,133.480496 19.1982912,134.974867 21.6506037,135.437985 C22.5999539,135.617562 23.5629864,135.723627 24.5165466,135.890602 C25.7269154,136.102733 26.4152469,136.749629 26.5404937,137.748326 C26.7415202,139.366615 25.9289943,140.432523 24.2755253,140.674059 C22.2968354,140.964952 20.4728622,140.644654 19.0025272,139.254249 C18.4510201,139.786677 17.9310877,140.288652 17.3680031,140.832632 C18.6888838,142.268194 20.3812952,142.827927 22.2357907,142.963397 L22.2357907,142.963397 Z M89.7785805,128.604625 L97.6922875,128.604625 L97.6922875,126.47071 L87.2820632,126.47071 L87.2820632,142.802723 L97.6849201,142.802723 L97.6849201,140.596347 L89.769108,140.596347 L89.769108,135.692123 L96.520861,135.692123 L96.520861,133.44164 L89.7785805,133.44164 L89.7785805,128.604625 Z M34.9688706,135.725728 L41.6679989,135.725728 L41.6679989,142.805874 L44.087684,142.805874 L44.087684,126.485412 L41.6343191,126.485412 L41.6343191,133.369179 L34.9351908,133.369179 L34.9351908,126.483312 L32.5123482,126.483312 L32.5123482,142.816375 L34.9688706,142.816375 L34.9688706,135.725728 Z M51.0183611,133.698928 C52.5507933,133.698928 54.0527031,133.802893 55.531458,133.666373 C56.7797166,133.551906 57.5217253,132.463946 57.4964655,131.186957 C57.4712056,129.91942 56.7502468,128.892368 55.5261955,128.784202 C54.0463881,128.652933 52.5465833,128.752697 51.0183611,128.752697 L51.0183611,133.698928 Z M56.7239344,135.617562 C57.974298,138.022417 59.2036118,140.386316 60.4834452,142.85103 C59.546725,142.85103 58.7089393,142.880435 57.8753635,142.830027 C57.6880195,142.818475 57.4543657,142.563288 57.3512212,142.364808 C56.3387214,140.389467 55.3388515,138.405723 54.361084,136.412529 C54.1779499,136.039724 53.975871,135.871699 53.5443482,135.890602 C52.7244549,135.926307 51.9035091,135.900053 51.0162561,135.900053 L51.0162561,142.796422 L48.5460512,142.796422 L48.5460512,126.478061 C48.6786656,126.460209 48.8154899,126.427654 48.9523142,126.427654 C51.0383585,126.426604 53.1233503,126.405601 55.2083422,126.438155 C58.657367,126.489613 60.8560283,129.657931 59.7172291,132.89871 C59.3193862,134.027627 58.4816004,134.802641 56.7239344,135.617562 L56.7239344,135.617562 Z M73.4870162,132.073288 C75.7467222,135.502044 78.0043232,138.935002 80.2724491,142.359558 C80.4050634,142.558037 80.6292447,142.810074 80.8292187,142.828977 C81.4922903,142.887786 82.1648344,142.84998 82.8163286,142.84998 L82.8163286,126.46651 L80.3671736,126.46651 L80.3671736,137.925803 C80.1324673,137.586602 80.0061679,137.412277 79.887236,137.23165 C77.6285826,133.799743 75.3741391,130.367836 73.1039082,126.94433 C72.9618214,126.730098 72.7113277,126.47176 72.4892513,126.448657 C71.8482821,126.382497 71.1957355,126.425553 70.5337163,126.425553 L70.5337163,142.798522 L72.9933963,142.798522 L72.9933963,131.374935 C73.2207351,131.695232 73.3596644,131.880059 73.4870162,132.073288 L73.4870162,132.073288 Z M57.876416,73.0976247 C55.6819648,73.0976247 53.6601226,72.6702115 51.8687767,71.8311375 C50.064801,70.9857626 48.5576287,69.7234761 47.3872547,68.077883 C47.3188425,67.9823189 47.2914776,67.8626012 47.31358,67.7470841 C47.3346299,67.6305169 47.4030421,67.529702 47.5009241,67.4635423 L48.6344608,66.710581 C48.8291723,66.5803618 49.0944009,66.6276188 49.2312252,66.818747 C51.2320175,69.61426 54.1621625,71.0319695 57.9395657,71.0319695 C58.8152412,71.0319695 59.7140716,70.8901985 60.6097446,70.6119074 C61.50226,70.3357166 62.3253108,69.9146044 63.0567946,69.3622228 C63.7777534,68.8171922 64.3734653,68.12514 64.8249855,67.3028685 C65.2691382,66.4931989 65.4943721,65.5491094 65.4943721,64.4979041 C65.4943721,63.258721 65.2165135,62.2474216 64.6639538,61.4881594 C64.0966592,60.7078942 63.3735954,60.0746506 62.5126548,59.6052312 C61.6243494,59.1221599 60.627637,58.7231009 59.550935,58.4175058 C58.4416056,58.1056097 57.4059509,57.8241681 56.4439709,57.5710807 C55.3830563,57.2770373 54.3737139,56.9451882 53.4380462,56.5839349 C52.4760661,56.2132301 51.6214405,55.724908 50.8973242,55.1326205 C50.1553155,54.5266809 49.5638135,53.7684689 49.1417632,52.8789875 C48.7186603,51.9905562 48.5028989,50.872141 48.5028989,49.552096 C48.5028989,48.2289005 48.7744426,47.0611279 49.3101623,46.0792329 C49.8437771,45.1025886 50.5636834,44.2834676 51.4509364,43.6418228 C52.3287169,43.0085792 53.3370067,42.5213072 54.4473886,42.1957591 C55.5535604,41.8712612 56.6860446,41.7063868 57.8132664,41.7063868 C61.8885255,41.7063868 64.9954896,43.1839551 67.0436442,46.100236 C67.1141613,46.1989506 67.1394212,46.3249692 67.1131088,46.4446869 C67.0867965,46.5633544 67.0120693,46.6662696 66.9057674,46.7271786 L65.7101335,47.4171305 C65.5227895,47.5273968 65.2786107,47.4801399 65.1449439,47.3068643 C64.2250636,46.1096874 63.174674,45.2118047 62.0232448,44.6363197 C60.8718157,44.062935 59.455158,43.772042 57.8132664,43.772042 C57.0554702,43.772042 56.2408394,43.8728569 55.3967387,44.0734365 C54.567373,44.2708657 53.8001044,44.5995643 53.1128254,45.051131 C52.4350188,45.4932463 51.8666718,46.0918347 51.420414,46.8258932 C50.9825763,47.5494501 50.7604999,48.4462826 50.7604999,49.4901368 C50.7604999,50.6684109 50.9446865,51.6156508 51.3088496,52.3014022 C51.6698553,52.9850532 52.1813676,53.5426855 52.8265468,53.9595971 C53.5001434,54.3943614 54.3326666,54.7682166 55.3009617,55.0717115 C56.3134615,55.386758 57.4259483,55.6892027 58.6078998,55.9727446 C59.7582764,56.2720388 60.8833932,56.6248909 61.9622002,57.025 C63.062057,57.4345605 64.0482445,57.9480864 64.8955027,58.5550761 C65.7659157,59.1788683 66.4658246,59.9675348 66.9741795,60.8979722 C67.4909544,61.8389113 67.7530256,63.0087841 67.7530256,64.3729356 C67.7530256,65.7328866 67.4846394,66.9699693 66.9531296,68.0495288 C66.4258298,69.1248877 65.6996085,70.0500744 64.7944632,70.798835 C63.8966853,71.5423449 62.8431381,72.1178299 61.6653967,72.5095378 C60.4918652,72.8991453 59.2172942,73.0976247 57.876416,73.0976247 L57.876416,73.0976247 Z M57.5301453,32.0292071 C43.4856571,32.0292071 32.1008228,43.3897855 32.1008228,57.4020057 C32.1008228,71.4152761 43.4856571,82.7748044 57.5301453,82.7748044 C71.5746335,82.7748044 82.9594678,71.4152761 82.9594678,57.4020057 C82.9594678,43.3897855 71.5746335,32.0292071 57.5301453,32.0292071 L57.5301453,32.0292071 Z M44.6518211,9.61679581 C42.8867877,9.61679581 41.1954288,10.2311366 39.8313958,11.3800063 L15.0346225,32.2633917 C13.5053478,33.5498317 12.5696801,35.3550485 12.401281,37.3461426 L9.66479497,69.6069089 C9.49639583,71.5980031 10.1142102,73.5344892 11.4066736,75.0614148 L32.3355291,99.8030702 C33.6258875,101.328946 35.4351257,102.261483 37.4285506,102.430558 L69.7632903,105.160962 C71.7609251,105.322686 73.6975152,104.712546 75.2278423,103.424005 L100.026721,82.5406198 C101.555995,81.2531296 102.49061,79.4468627 102.660062,77.4578688 L105.394443,45.1960524 C105.563895,43.2060084 104.94608,41.2695223 103.653617,39.7425967 L82.7247615,14.9998911 C81.4354556,13.4750658 79.6251649,12.5414779 77.6306876,12.3724029 L45.2970003,9.64409985 C45.0812389,9.62624721 44.8654775,9.61679581 44.6518211,9.61679581 L44.6518211,9.61679581 Z M70.411627,107.287526 C70.1369259,107.287526 69.8622248,107.275974 69.5864712,107.252871 L37.2517315,104.522467 C34.697327,104.307186 32.3797339,103.112109 30.7262648,101.15672 L9.7963568,76.4150648 C8.14394025,74.4596759 7.3514118,71.9792094 7.56822569,69.4304829 L10.3047117,37.1697166 C10.5194206,34.6199398 11.718212,32.3074982 13.677957,30.6566543 L38.4747302,9.77431909 C40.4334227,8.12452534 42.9183625,7.33375851 45.4738194,7.55219078 L77.8075067,10.2804939 C80.3629636,10.4957757 82.6805567,11.6919024 84.3350783,13.6462411 L105.262881,38.3889467 C106.917403,40.3432854 107.708879,42.8237519 107.492065,45.3724785 L104.756631,77.6342949 C104.54087,80.1840716 103.342079,82.4965133 101.383386,84.146307 L76.5845079,105.029692 C74.8373668,106.49991 72.6713329,107.287526 70.411627,107.287526 L70.411627,107.287526 Z M57.5301453,2.10083538 C56.1503249,2.10083538 54.7715569,2.37282557 53.4590961,2.91470563 L21.795848,16.000689 C19.1698739,17.0875996 17.1238243,19.128051 16.0376499,21.747138 L2.92146194,53.3389554 C1.834235,55.9590926 1.834235,58.8449189 2.92146194,61.4640059 L16.0376499,93.0568735 C17.1101419,95.639205 19.2077637,97.7332144 21.795848,98.8022723 L53.4590961,111.888256 C56.0840177,112.973066 58.9773254,112.973066 61.602247,111.888256 L93.2644426,98.8022723 C95.8893642,97.7185122 97.9354138,95.6780607 99.0236932,93.0568735 L112.138829,61.4640059 C113.227108,58.8449189 113.226056,55.9590926 112.138829,53.3389554 L99.0236932,21.747138 C97.9354138,19.1270009 95.8904167,17.0865494 93.2644426,16.000689 L61.602247,2.91470563 C60.2897862,2.37282557 58.9089133,2.10083538 57.5301453,2.10083538 L57.5301453,2.10083538 Z M57.5301453,114.803486 C55.8777288,114.803486 54.2253122,114.478988 52.6528852,113.828942 L20.9896371,100.742959 C17.8447832,99.442867 15.3956282,96.9991559 14.0926398,93.8612923 L0.976451884,62.2684247 C-0.325483961,59.1305611 -0.325483961,55.6745005 0.976451884,52.5345366 L14.0926398,20.9427191 C15.3945757,17.8059057 17.8437307,15.3611445 20.9896371,14.0610524 L52.6528852,0.975069059 C55.7977392,-0.32502302 59.2625515,-0.32502302 62.4084579,0.975069059 L94.0706535,14.0610524 C97.2155075,15.3611445 99.6646624,17.8048555 100.967651,20.9427191 L114.082786,52.5345366 C115.386827,55.6745005 115.386827,59.1305611 114.082786,62.2684247 L100.967651,93.8612923 C99.6646624,97.0002061 97.214455,99.4439171 94.0706535,100.742959 L62.4084579,113.828942 C60.8349784,114.478988 59.1825619,114.803486 57.5301453,114.803486 L57.5301453,114.803486 Z" id="logo-vertical"></path>
            </g>
        </g>
    </g>
</svg>